*** Darwin 10x10 ***
Turn = 0.
  0123456789
0 ..........
1 ..........
2 ....f.....
3 ....h.....
4 ..........
5 ..t......t
6 .f........
7 ....h.....
8 ...h......
9 ..........

Turn = 1.
  0123456789
0 ..........
1 ..........
2 ....f.....
3 .....h....
4 ..........
5 ..t......t
6 .f........
7 ...h......
8 ...h......
9 ..........

Turn = 2.
  0123456789
0 ..........
1 ..........
2 ....f.....
3 ......h...
4 ..........
5 ..t......t
6 .f........
7 ..hh......
8 ..........
9 ..........

Turn = 3.
  0123456789
0 ..........
1 ..........
2 ....f.....
3 .......h..
4 ..........
5 ..t......t
6 .f.h......
7 .h........
8 ..........
9 ..........

Turn = 4.
  0123456789
0 ..........
1 ..........
2 ....f.....
3 ........h.
4 ..........
5 ..th.....t
6 .f........
7 h.........
8 ..........
9 ..........

Turn = 5.
  0123456789
0 ..........
1 ..........
2 ....f.....
3 .........h
4 ...h......
5 ..t......t
6 .f........
7 h.........
8 ..........
9 ..........

Turn = 6.
  0123456789
0 ..........
1 ..........
2 ....f.....
3 ...h.....h
4 ..........
5 ..t......t
6 .f........
7 h.........
8 ..........
9 ..........

Turn = 7.
  0123456789
0 ..........
1 ..........
2 ...hf.....
3 .........h
4 ..........
5 ..t......t
6 .f........
7 h.........
8 ..........
9 ..........

Turn = 8.
  0123456789
0 ..........
1 ...h......
2 ....f.....
3 .........h
4 ..........
5 ..t......t
6 .f........
7 h.........
8 ..........
9 ..........

Turn = 9.
  0123456789
0 ...h......
1 ..........
2 ....f.....
3 .........h
4 ..........
5 ..t......t
6 .f........
7 h.........
8 ..........
9 ..........

*** Darwin 11x11 ***
Turn = 0.
  01234567890
0 ...........
1 .....t.....
2 ...r...t...
3 .........f.
4 ...........
5 h.h.....f..
6 .......f...
7 ...........
8 ...........
9 ...........
0 ...........

Turn = 1.
  01234567890
0 ...........
1 .....t.....
2 ....r..t...
3 .........f.
4 ..h........
5 h.......f..
6 .......f...
7 ...........
8 ...........
9 ...........
0 ...........

Turn = 2.
  01234567890
0 ...........
1 .....t.....
2 .....r.t...
3 ..h......f.
4 ...........
5 h.......f..
6 .......f...
7 ...........
8 ...........
9 ...........
0 ...........

Turn = 3.
  01234567890
0 ...........
1 .....t.....
2 ..h...rt...
3 .........f.
4 ...........
5 h.......f..
6 .......f...
7 ...........
8 ...........
9 ...........
0 ...........

Turn = 4.
  01234567890
0 ...........
1 ..h..t.r...
2 ......r....
3 .........f.
4 ...........
5 h.......f..
6 .......f...
7 ...........
8 ...........
9 ...........
0 ...........

Turn = 5.
  01234567890
0 ..h....r...
1 .....t.....
2 .......r...
3 .........f.
4 ...........
5 h.......f..
6 .......f...
7 ...........
8 ...........
9 ...........
0 ...........

Turn = 6.
  01234567890
0 ..h....r...
1 .....t.....
2 ........r..
3 .........f.
4 ...........
5 h.......f..
6 .......f...
7 ...........
8 ...........
9 ...........
0 ...........

Turn = 7.
  01234567890
0 ..h.....r..
1 .....t.....
2 .........r.
3 .........f.
4 ...........
5 h.......f..
6 .......f...
7 ...........
8 ...........
9 ...........
0 ...........

Turn = 8.
  01234567890
0 ..h......r.
1 .....t.....
2 ..........r
3 .........f.
4 ...........
5 h.......f..
6 .......f...
7 ...........
8 ...........
9 ...........
0 ...........

Turn = 9.
  01234567890
0 ..h.......r
1 .....t.....
2 ..........r
3 .........f.
4 ...........
5 h.......f..
6 .......f...
7 ...........
8 ...........
9 ...........
0 ...........

*** Darwin 12x12 ***
Turn = 0.
  012345678901
0 ............
1 ............
2 ....r.......
3 r...........
4 .....h...h..
5 .........h..
6 ............
7 ............
8 .r..........
9 ......h.....
0 ............
1 ............

Turn = 1.
  012345678901
0 ............
1 ............
2 ............
3 ....r....h..
4 r...........
5 .....h..h...
6 ............
7 .r..........
8 ............
9 ............
0 ......h.....
1 ............

Turn = 2.
  012345678901
0 ............
1 ............
2 .........h..
3 ............
4 ....r.......
5 r......h....
6 .r...h......
7 ............
8 ............
9 ............
0 ............
1 ......h.....

Turn = 3.
  012345678901
0 ............
1 .........h..
2 ............
3 ............
4 ............
5 .r..r.h.....
6 r...........
7 .....h......
8 ............
9 ............
0 ............
1 ......h.....

Turn = 4.
  012345678901
0 .........h..
1 ............
2 ............
3 ............
4 .r..........
5 .....h......
6 ....r.......
7 r...........
8 .....h......
9 ............
0 ............
1 ......h.....

Turn = 5.
  012345678901
0 .........h..
1 ............
2 ............
3 .r..........
4 ............
5 ....h.......
6 ............
7 ....r.......
8 r...........
9 .....h......
0 ............
1 ......h.....

Turn = 6.
  012345678901
0 .........h..
1 ............
2 .r..........
3 ............
4 ............
5 ...h........
6 ............
7 ............
8 ....r.......
9 r...........
0 .....h......
1 ......h.....

Turn = 7.
  012345678901
0 .........h..
1 .r..........
2 ............
3 ............
4 ............
5 ..h.........
6 ............
7 ............
8 ............
9 ....r.......
0 r...........
1 .....hh.....

Turn = 8.
  012345678901
0 .r.......h..
1 ............
2 ............
3 ............
4 ............
5 .h..........
6 ............
7 ............
8 ............
9 ............
0 ....r.......
1 r....hh.....

Turn = 9.
  012345678901
0 .r.......h..
1 ............
2 ............
3 ............
4 ............
5 h...........
6 ............
7 ............
8 ............
9 ............
0 ............
1 r...rhh.....

*** Darwin 13x13 ***
Turn = 0.
  0123456789012
0 .............
1 .....r.r.....
2 ......f......
3 h............
4 .....f.......
5 .............
6 .............
7 ......f......
8 ........f....
9 .........f...
0 .............
1 .............
2 .............

Turn = 1.
  0123456789012
0 .............
1 ......r......
2 .....rf......
3 .............
4 h....f.......
5 .............
6 .............
7 ......f......
8 ........f....
9 .........f...
0 .............
1 .............
2 .............

Turn = 2.
  0123456789012
0 .............
1 .....r.......
2 ......f......
3 .....r.......
4 .....f.......
5 h............
6 .............
7 ......f......
8 ........f....
9 .........f...
0 .............
1 .............
2 .............

Turn = 3.
  0123456789012
0 .............
1 ....r........
2 ......f......
3 .....r.......
4 .............
5 .....r.......
6 h............
7 ......f......
8 ........f....
9 .........f...
0 .............
1 .............
2 .............

Turn = 4.
  0123456789012
0 .............
1 ...r.........
2 ......f......
3 .............
4 .....r.......
5 .............
6 .....r.......
7 h.....f......
8 ........f....
9 .........f...
0 .............
1 .............
2 .............

Turn = 5.
  0123456789012
0 .............
1 ..r..........
2 ......f......
3 .............
4 .............
5 .....r.......
6 .............
7 .....rf......
8 h.......f....
9 .........f...
0 .............
1 .............
2 .............

Turn = 6.
  0123456789012
0 .............
1 .r...........
2 ......f......
3 .............
4 .............
5 .............
6 .....r.......
7 ......f......
8 .....r..f....
9 h........f...
0 .............
1 .............
2 .............

Turn = 7.
  0123456789012
0 .............
1 r............
2 ......f......
3 .............
4 .............
5 .............
6 .............
7 .....rf......
8 ........f....
9 .....r...f...
0 h............
1 .............
2 .............

Turn = 8.
  0123456789012
0 .............
1 r............
2 ......f......
3 .............
4 .............
5 .............
6 .............
7 ......f......
8 .....r..f....
9 .........f...
0 .....r.......
1 h............
2 .............

Turn = 9.
  0123456789012
0 r............
1 .............
2 ......f......
3 .............
4 .............
5 .............
6 .............
7 ......f......
8 ........f....
9 .....r...f...
0 .............
1 .....r.......
2 h............

*** Darwin 14x14 ***
Turn = 0.
  01234567890123
0 ...h..........
1 ..............
2 ..............
3 ...f..........
4 .t............
5 .........f....
6 ...t....f.....
7 ..............
8 ......r.......
9 ..h...........
0 ..............
1 ..............
2 ..............
3 ..............

Turn = 1.
  01234567890123
0 ...h..........
1 ..............
2 ..............
3 ...f..........
4 .t............
5 .........f....
6 ...t....f.....
7 ..............
8 .......r......
9 .h............
0 ..............
1 ..............
2 ..............
3 ..............

Turn = 2.
  01234567890123
0 ...h..........
1 ..............
2 ..............
3 ...f..........
4 .t............
5 .........f....
6 ...t....f.....
7 ..............
8 ........r.....
9 h.............
0 ..............
1 ..............
2 ..............
3 ..............

Turn = 3.
  01234567890123
0 ...h..........
1 ..............
2 ..............
3 ...f..........
4 .t............
5 .........f....
6 ...t....f.....
7 ..............
8 .........r....
9 h.............
0 ..............
1 ..............
2 ..............
3 ..............

Turn = 4.
  01234567890123
0 ...h..........
1 ..............
2 ..............
3 ...f..........
4 .t............
5 .........f....
6 ...t....f.....
7 ..............
8 ..........r...
9 h.............
0 ..............
1 ..............
2 ..............
3 ..............

Turn = 5.
  01234567890123
0 ...h..........
1 ..............
2 ..............
3 ...f..........
4 .t............
5 .........f....
6 ...t....f.....
7 ..............
8 ...........r..
9 h.............
0 ..............
1 ..............
2 ..............
3 ..............

Turn = 6.
  01234567890123
0 ...h..........
1 ..............
2 ..............
3 ...f..........
4 .t............
5 .........f....
6 ...t....f.....
7 ..............
8 ............r.
9 h.............
0 ..............
1 ..............
2 ..............
3 ..............

Turn = 7.
  01234567890123
0 ...h..........
1 ..............
2 ..............
3 ...f..........
4 .t............
5 .........f....
6 ...t....f.....
7 ..............
8 .............r
9 h.............
0 ..............
1 ..............
2 ..............
3 ..............

Turn = 8.
  01234567890123
0 ...h..........
1 ..............
2 ..............
3 ...f..........
4 .t............
5 .........f....
6 ...t....f.....
7 ..............
8 .............r
9 h.............
0 ..............
1 ..............
2 ..............
3 ..............

Turn = 9.
  01234567890123
0 ...h..........
1 ..............
2 ..............
3 ...f..........
4 .t............
5 .........f....
6 ...t....f.....
7 ..............
8 ..............
9 h............r
0 ..............
1 ..............
2 ..............
3 ..............

*** Darwin 15x15 ***
Turn = 0.
  012345678901234
0 .h.r...........
1 ...r...r.......
2 ...............
3 ..t............
4 .....f.........
5 ...............
6 ...f...........
7 ..h............
8 ...............
9 ...............
0 ...............
1 ...............
2 ...............
3 ...............
4 ...............

Turn = 1.
  012345678901234
0 h..r...........
1 ..r...r........
2 ...............
3 ..t............
4 .....f.........
5 ...............
6 ...f...........
7 ...h...........
8 ...............
9 ...............
0 ...............
1 ...............
2 ...............
3 ...............
4 ...............

Turn = 2.
  012345678901234
0 h.r............
1 .r...r.........
2 ...............
3 ..t............
4 .....f.........
5 ...............
6 ...f...........
7 ....h..........
8 ...............
9 ...............
0 ...............
1 ...............
2 ...............
3 ...............
4 ...............

Turn = 3.
  012345678901234
0 hr.............
1 r...r..........
2 ...............
3 ..t............
4 .....f.........
5 ...............
6 ...f...........
7 .....h.........
8 ...............
9 ...............
0 ...............
1 ...............
2 ...............
3 ...............
4 ...............

Turn = 4.
  012345678901234
0 rr.............
1 r..r...........
2 ...............
3 ..t............
4 .....f.........
5 ...............
6 ...f...........
7 ......h........
8 ...............
9 ...............
0 ...............
1 ...............
2 ...............
3 ...............
4 ...............

Turn = 5.
  012345678901234
0 rr.............
1 ..r............
2 r..............
3 ..t............
4 .....f.........
5 ...............
6 ...f...........
7 .......h.......
8 ...............
9 ...............
0 ...............
1 ...............
2 ...............
3 ...............
4 ...............

Turn = 6.
  012345678901234
0 rr.............
1 .r.............
2 ...............
3 r.t............
4 .....f.........
5 ...............
6 ...f...........
7 ........h......
8 ...............
9 ...............
0 ...............
1 ...............
2 ...............
3 ...............
4 ...............

Turn = 7.
  012345678901234
0 r.r............
1 r..............
2 ...............
3 ..t............
4 r....f.........
5 ...............
6 ...f...........
7 .........h.....
8 ...............
9 ...............
0 ...............
1 ...............
2 ...............
3 ...............
4 ...............

Turn = 8.
  012345678901234
0 r..r...........
1 r..............
2 ...............
3 ..t............
4 .....f.........
5 r..............
6 ...f...........
7 ..........h....
8 ...............
9 ...............
0 ...............
1 ...............
2 ...............
3 ...............
4 ...............

Turn = 9.
  012345678901234
0 r...r..........
1 r..............
2 ...............
3 ..t............
4 .....f.........
5 ...............
6 r..f...........
7 ...........h...
8 ...............
9 ...............
0 ...............
1 ...............
2 ...............
3 ...............
4 ...............

*** Darwin 16x16 ***
Turn = 0.
  0123456789012345
0 ...h............
1 ................
2 ................
3 .......t........
4 .....f..........
5 ................
6 .r....f.........
7 ................
8 .r..............
9 .t.......r......
0 ................
1 ................
2 ................
3 ................
4 ................
5 ................

Turn = 1.
  0123456789012345
0 ...h............
1 ................
2 ................
3 .......t........
4 .....f..........
5 ................
6 ..r...f.........
7 ................
8 ..r......r......
9 .t..............
0 ................
1 ................
2 ................
3 ................
4 ................
5 ................

Turn = 2.
  0123456789012345
0 ...h............
1 ................
2 ................
3 .......t........
4 .....f..........
5 ................
6 ...r..f.........
7 .........r......
8 ...r............
9 .t..............
0 ................
1 ................
2 ................
3 ................
4 ................
5 ................

Turn = 3.
  0123456789012345
0 ...h............
1 ................
2 ................
3 .......t........
4 .....f..........
5 ................
6 ....r.f..r......
7 ................
8 ....r...........
9 .t..............
0 ................
1 ................
2 ................
3 ................
4 ................
5 ................

Turn = 4.
  0123456789012345
0 ...h............
1 ................
2 ................
3 .......t........
4 .....f..........
5 .........r......
6 .....rf.........
7 ................
8 .....r..........
9 .t..............
0 ................
1 ................
2 ................
3 ................
4 ................
5 ................

Turn = 5.
  0123456789012345
0 ...h............
1 ................
2 ................
3 .......t........
4 .....f...r......
5 ................
6 .....r..........
7 ......r.........
8 ......r.........
9 .t..............
0 ................
1 ................
2 ................
3 ................
4 ................
5 ................

Turn = 6.
  0123456789012345
0 ...h............
1 ................
2 ................
3 .......t.r......
4 .....f..........
5 ................
6 ......r.........
7 ......r.........
8 .......r........
9 .t..............
0 ................
1 ................
2 ................
3 ................
4 ................
5 ................

Turn = 7.
  0123456789012345
0 ...h............
1 ................
2 .........r......
3 .......t........
4 .....f..........
5 ................
6 .......r........
7 .....r..........
8 ........r.......
9 .t..............
0 ................
1 ................
2 ................
3 ................
4 ................
5 ................

Turn = 8.
  0123456789012345
0 ...h............
1 .........r......
2 ................
3 .......t........
4 .....f..........
5 ................
6 ........r.......
7 ....r...........
8 .........r......
9 .t..............
0 ................
1 ................
2 ................
3 ................
4 ................
5 ................

Turn = 9.
  0123456789012345
0 ...h.....r......
1 ................
2 ................
3 .......t........
4 .....f..........
5 ................
6 .........r......
7 ...r............
8 ..........r.....
9 .t..............
0 ................
1 ................
2 ................
3 ................
4 ................
5 ................

*** Darwin 17x17 ***
Turn = 0.
  01234567890123456
0 .h....h..........
1 .................
2 .......th........
3 .................
4 .................
5 ..f..............
6 .................
7 .................
8 .....t.f.........
9 .................
0 .................
1 .................
2 .................
3 .................
4 .................
5 .................
6 .................

Turn = 1.
  01234567890123456
0 .....h...........
1 .h...............
2 .......tt........
3 .................
4 .................
5 ..f..............
6 .................
7 .................
8 .....t.f.........
9 .................
0 .................
1 .................
2 .................
3 .................
4 .................
5 .................
6 .................

Turn = 2.
  01234567890123456
0 ....h............
1 .................
2 .h.....tt........
3 .................
4 .................
5 ..f..............
6 .................
7 .................
8 .....t.f.........
9 .................
0 .................
1 .................
2 .................
3 .................
4 .................
5 .................
6 .................

Turn = 3.
  01234567890123456
0 ...h.............
1 .................
2 .......tt........
3 .h...............
4 .................
5 ..f..............
6 .................
7 .................
8 .....t.f.........
9 .................
0 .................
1 .................
2 .................
3 .................
4 .................
5 .................
6 .................

Turn = 4.
  01234567890123456
0 ..h..............
1 .................
2 .......tt........
3 .................
4 .h...............
5 ..f..............
6 .................
7 .................
8 .....t.f.........
9 .................
0 .................
1 .................
2 .................
3 .................
4 .................
5 .................
6 .................

Turn = 5.
  01234567890123456
0 .h...............
1 .................
2 .......tt........
3 .................
4 .................
5 .hf..............
6 .................
7 .................
8 .....t.f.........
9 .................
0 .................
1 .................
2 .................
3 .................
4 .................
5 .................
6 .................

Turn = 6.
  01234567890123456
0 h................
1 .................
2 .......tt........
3 .................
4 .................
5 ..f..............
6 .h...............
7 .................
8 .....t.f.........
9 .................
0 .................
1 .................
2 .................
3 .................
4 .................
5 .................
6 .................

Turn = 7.
  01234567890123456
0 h................
1 .................
2 .......tt........
3 .................
4 .................
5 ..f..............
6 .................
7 .h...............
8 .....t.f.........
9 .................
0 .................
1 .................
2 .................
3 .................
4 .................
5 .................
6 .................

Turn = 8.
  01234567890123456
0 h................
1 .................
2 .......tt........
3 .................
4 .................
5 ..f..............
6 .................
7 .................
8 .h...t.f.........
9 .................
0 .................
1 .................
2 .................
3 .................
4 .................
5 .................
6 .................

Turn = 9.
  01234567890123456
0 h................
1 .................
2 .......tt........
3 .................
4 .................
5 ..f..............
6 .................
7 .................
8 .....t.f.........
9 .h...............
0 .................
1 .................
2 .................
3 .................
4 .................
5 .................
6 .................

*** Darwin 18x18 ***
Turn = 0.
  012345678901234567
0 ..................
1 ..................
2 .t................
3 ........r.........
4 ......t..h........
5 ..................
6 .......f..........
7 ..................
8 ........f.........
9 ...h.....t........
0 ..................
1 ..................
2 ..................
3 ..................
4 ..................
5 ..................
6 ..................
7 ..................

Turn = 1.
  012345678901234567
0 ..................
1 ..................
2 .t......r.........
3 .........h........
4 ......t...........
5 ..................
6 .......f..........
7 ..................
8 ...h....f.........
9 .........t........
0 ..................
1 ..................
2 ..................
3 ..................
4 ..................
5 ..................
6 ..................
7 ..................

Turn = 2.
  012345678901234567
0 ..................
1 ........r.........
2 .t.......h........
3 ..................
4 ......t...........
5 ..................
6 .......f..........
7 ...h..............
8 ........f.........
9 .........t........
0 ..................
1 ..................
2 ..................
3 ..................
4 ..................
5 ..................
6 ..................
7 ..................

Turn = 3.
  012345678901234567
0 ........r.........
1 .........h........
2 .t................
3 ..................
4 ......t...........
5 ..................
6 ...h...f..........
7 ..................
8 ........f.........
9 .........t........
0 ..................
1 ..................
2 ..................
3 ..................
4 ..................
5 ..................
6 ..................
7 ..................

Turn = 4.
  012345678901234567
0 ........rh........
1 ..................
2 .t................
3 ..................
4 ......t...........
5 ...h..............
6 .......f..........
7 ..................
8 ........f.........
9 .........t........
0 ..................
1 ..................
2 ..................
3 ..................
4 ..................
5 ..................
6 ..................
7 ..................

Turn = 5.
  012345678901234567
0 ........rr........
1 ..................
2 .t................
3 ..................
4 ...h..t...........
5 ..................
6 .......f..........
7 ..................
8 ........f.........
9 .........t........
0 ..................
1 ..................
2 ..................
3 ..................
4 ..................
5 ..................
6 ..................
7 ..................

Turn = 6.
  012345678901234567
0 ........rr........
1 ..................
2 .t................
3 ...h..............
4 ......t...........
5 ..................
6 .......f..........
7 ..................
8 ........f.........
9 .........t........
0 ..................
1 ..................
2 ..................
3 ..................
4 ..................
5 ..................
6 ..................
7 ..................

Turn = 7.
  012345678901234567
0 .........r........
1 ........r.........
2 .t.h..............
3 ..................
4 ......t...........
5 ..................
6 .......f..........
7 ..................
8 ........f.........
9 .........t........
0 ..................
1 ..................
2 ..................
3 ..................
4 ..................
5 ..................
6 ..................
7 ..................

Turn = 8.
  012345678901234567
0 ..........r.......
1 ...h..............
2 .t......r.........
3 ..................
4 ......t...........
5 ..................
6 .......f..........
7 ..................
8 ........f.........
9 .........t........
0 ..................
1 ..................
2 ..................
3 ..................
4 ..................
5 ..................
6 ..................
7 ..................

Turn = 9.
  012345678901234567
0 ...h.......r......
1 ..................
2 .t................
3 ........r.........
4 ......t...........
5 ..................
6 .......f..........
7 ..................
8 ........f.........
9 .........t........
0 ..................
1 ..................
2 ..................
3 ..................
4 ..................
5 ..................
6 ..................
7 ..................

*** Darwin 19x19 ***
Turn = 0.
  0123456789012345678
0 ...................
1 ...t...............
2 ..f................
3 ....f..............
4 ....f..............
5 ...................
6 ......h..h.........
7 ...r...............
8 ....h..............
9 ...................
0 ...................
1 ...................
2 ...................
3 ...................
4 ...................
5 ...................
6 ...................
7 ...................
8 ...................

Turn = 1.
  0123456789012345678
0 ...................
1 ...t...............
2 ..f................
3 ....f..............
4 ....f..............
5 ...................
6 ........h..........
7 ....r.h............
8 .....h.............
9 ...................
0 ...................
1 ...................
2 ...................
3 ...................
4 ...................
5 ...................
6 ...................
7 ...................
8 ...................

Turn = 2.
  0123456789012345678
0 ...................
1 ...t...............
2 ..f................
3 ....f..............
4 ....f..............
5 ...................
6 .......h...........
7 .....r.............
8 .....hh............
9 ...................
0 ...................
1 ...................
2 ...................
3 ...................
4 ...................
5 ...................
6 ...................
7 ...................
8 ...................

Turn = 3.
  0123456789012345678
0 ...................
1 ...t...............
2 ..f................
3 ....f..............
4 ....f..............
5 ...................
6 ......h............
7 ......r............
8 .....h.............
9 ......h............
0 ...................
1 ...................
2 ...................
3 ...................
4 ...................
5 ...................
6 ...................
7 ...................
8 ...................

Turn = 4.
  0123456789012345678
0 ...................
1 ...t...............
2 ..f................
3 ....f..............
4 ....f..............
5 ...................
6 .....h.............
7 .......r...........
8 ......h............
9 ...................
0 ......h............
1 ...................
2 ...................
3 ...................
4 ...................
5 ...................
6 ...................
7 ...................
8 ...................

Turn = 5.
  0123456789012345678
0 ...................
1 ...t...............
2 ..f................
3 ....f..............
4 ....f..............
5 ...................
6 ....h..............
7 ........r..........
8 .......h...........
9 ...................
0 ...................
1 ......h............
2 ...................
3 ...................
4 ...................
5 ...................
6 ...................
7 ...................
8 ...................

Turn = 6.
  0123456789012345678
0 ...................
1 ...t...............
2 ..f................
3 ....f..............
4 ....f..............
5 ...................
6 ...h...............
7 .........r.........
8 ........h..........
9 ...................
0 ...................
1 ...................
2 ......h............
3 ...................
4 ...................
5 ...................
6 ...................
7 ...................
8 ...................

Turn = 7.
  0123456789012345678
0 ...................
1 ...t...............
2 ..f................
3 ....f..............
4 ....f..............
5 ...................
6 ..h................
7 ..........r........
8 .........h.........
9 ...................
0 ...................
1 ...................
2 ...................
3 ......h............
4 ...................
5 ...................
6 ...................
7 ...................
8 ...................

Turn = 8.
  0123456789012345678
0 ...................
1 ...t...............
2 ..f................
3 ....f..............
4 ....f..............
5 ...................
6 .h.................
7 ...........r.......
8 ..........h........
9 ...................
0 ...................
1 ...................
2 ...................
3 ...................
4 ......h............
5 ...................
6 ...................
7 ...................
8 ...................

Turn = 9.
  0123456789012345678
0 ...................
1 ...t...............
2 ..f................
3 ....f..............
4 ....f..............
5 ...................
6 h..................
7 ............r......
8 ...........h.......
9 ...................
0 ...................
1 ...................
2 ...................
3 ...................
4 ...................
5 ......h............
6 ...................
7 ...................
8 ...................

*** Darwin 50x50 ***
Turn = 0.
  01234567890123456789012345678901234567890123456789
0 ..............................................h...
1 ..................r...r...........................
2 ...........................................f......
3 .............................t....................
4 ..................................................
5 ..................................................
6 ..................................................
7 ..................................................
8 ...........t..h.................t.................
9 ............................f.....................
0 ..................................................
1 .....................................f...........r
2 .........t....................r................f..
3 ....................f.............................
4 ......f.............r..................t..........
5 ..r...............................................
6 ..................................................
7 .....f............................................
8 ..................................................
9 ............f.....................................
0 ..................................................
1 .......t............f.............................
2 ......................r...h.......................
3 .....h............................................
4 .................................................t
5 .....................................r.f..........
6 ..................................................
7 ..................................................
8 ...t........r.....................................
9 ..................................................
0 ..............................h.....h.............
1 ..................................................
2 ..................................................
3 ..................................................
4 f.......................r.........................
5 ...............................................h..
6 ...t..............................................
7 .................h................................
8 ..................................................
9 .t................................................
0 ..................r...............................
1 ..................................................
2 ......................h...........................
3 ..................................................
4 ............t.........................r...........
5 .............................ft...................
6 ..........................h.......................
7 ..................................................
8 ..................................................
9 .............t.......r......r.....................

Turn = 10.
  01234567890123456789012345678901234567890123456789
0 .................................................h
1 ................................r.................
2 ...........................................f......
3 .............................t....................
4 ..................................................
5 ....................r.............................
6 ..................................................
7 ..................................................
8 ...........t....................t.................
9 ............................f.....................
0 ..................................................
1 ..................r..................f............
2 .........t..............................r......f..
3 ...........r......................................
4 ......f................................t..........
5 ..................................................
6 ..................................................
7 .....f............................................
8 .....h........h...................................
9 ............f.....................................
0 ....................................h.............
1 .......t............f............................r
2 ............r.......................h.............
3 ..................................................
4 .................................................t
5 ..r...........................................rh..
6 ..................................................
7 ..................................................
8 ...t..............................................
9 ..................................................
0 ..................................................
1 ..................................................
2 ..................................................
3 ..................................................
4 f.............r........................r..........
5 ..................................................
6 ...t..............................................
7 .......h..........................................
8 ............r.....................................
9 .t................................................
0 ..............................h...................
1 ..................................................
2 ............h.....................................
3 ..................................................
4 ............t...................................r.
5 .............................tt...................
6 ..................................................
7 ..................................................
8 ..................................................
9 ...........rr.....rr......h.......................

Turn = 20.
  01234567890123456789012345678901234567890123456789
0 ........................r........................h
1 ..........................................r.......
2 ...........................................f......
3 .............................t....................
4 ..................................................
5 ..................................................
6 ..................................................
7 ..................................................
8 ...........t....................t.................
9 ............................f.....................
0 ....................................h.............
1 .....................................f............
2 .........t.......................................r
3 .........t........................................
4 ......f................................t..........
5 ...............................................r..
6 ...............................................r..
7 .....f............................................
8 .....h...........................................r
9 ............f.....................................
0 .................................................r
1 .......t..........r.f.............................
2 ..r...........................................h...
3 ...........................................r......
4 ..................................................
5 ..................................................
6 ..................................................
7 ..................................................
8 ...t..........h...................................
9 ..................................................
0 ..................................................
1 ..................................................
2 ..................................................
3 ..................................................
4 f...r.............................................
5 ..r...............................................
6 ...t..............................................
7 h.................................................
8 ..................................................
9 .t................................................
0 ..................................................
1 ..................................................
2 ..h...............................................
3 ............t.....................................
4 ............t.................t........r..........
5 .............................tt...................
6 ..................................................
7 ..................................................
8 ..................................................
9 .rr.....r.r...............h....................r..

Turn = 30.
  01234567890123456789012345678901234567890123456789
0 ..................................r.h............h
1 ..................................................
2 ...........................................f......
3 .............................t...................r
4 .................................................r
5 ..................................................
6 ..................................................
7 ..................................................
8 ...........t....................t................r
9 ............................f....................r
0 .................................................r
1 .....................................f............
2 .........t........................................
3 .........t........................................
4 ......f................................t..........
5 r.................................................
6 ..................................................
7 .....f............................................
8 .....h....................................r.......
9 ............f.....................................
0 ..................................................
1 .......t............f.............................
2 .................................................h
3 .................................r................
4 ..................................................
5 ..................................................
6 ..................................................
7 ..................................................
8 ...t..............................................
9 ..................................................
0 r.................................................
1 ..................r...............................
2 ..................................................
3 ..................................................
4 ..................................................
5 ..................................................
6 ...t..............................................
7 r.................................................
8 ..............h...................................
9 .t................................................
0 r.................................................
1 ..................................................
2 r.................................................
3 r...........t.....................................
4 ....r.......t.................t...................
5 ..rr.........................tt...................
6 .........................................r........
7 ..................................................
8 ..................................................
9 r.........................h..............r........

Turn = 40.
  01234567890123456789012345678901234567890123456789
0 ..............................r..................r
1 ................................................r.
2 ...........................................f...r..
3 .............................t..........r......r..
4 .......................................r..........
5 r.................................................
6 ..................................................
7 ...................................r..............
8 ...........t....................t.................
9 ............................f.....................
0 ..................................................
1 .....................................f............
2 .........t........................................
3 .........t........................................
4 ......f................................t..........
5 ..................................................
6 ..................................................
7 .....f............................................
8 .....h..........................r.................
9 ............f.....................................
0 r.................................................
1 .......t............f.............................
2 .................................................h
3 .......................r..........................
4 ..................................................
5 ..................................................
6 ..................................................
7 ..................................................
8 ...t..............................................
9 ..................................................
0 ..................................................
1 ..................................................
2 ..................................................
3 ..................................................
4 ....r.............................................
5 ..................................................
6 ..rr.....................................r........
7 ...r..............................................
8 ..................................................
9 tt................................................
0 ..................................................
1 ..................r...............................
2 r.................................................
3 ............t.....................................
4 .r..........t.................t...................
5 .............................tt...................
6 ..................................................
7 .r................................................
8 ..............h...................................
9 .......r..................h......................r

Turn = 50.
  01234567890123456789012345678901234567890123456789
0 ....................r..................r..........
1 ......................................r...........
2 ..................................................
3 r............................tr......r............
4 .............................r....................
5 ..................................................
6 ...........................................r......
7 ............................................r.....
8 ...........t....................t.................
9 ............................f.....................
0 r.................................................
1 .....................................f............
2 .........t........................................
3 .........t........................................
4 ......f................................t..........
5 ..................................................
6 ..................................................
7 .....f.............................r..............
8 .....h................r...........................
9 ............f.....................................
0 ..................................................
1 .......t............f.............................
2 .................................................h
3 .............r....................................
4 ....r.............................................
5 ..................................................
6 ..r......................................r........
7 ..................................................
8 ...t..............................................
9 ..................................................
0 r.................................................
1 r.................................................
2 ..................................................
3 r.................................................
4 ..................................................
5 r.................................................
6 ..................................................
7 ..................................................
8 ..................................................
9 .t................................................
0 ..................................................
1 ..................................................
2 ..................................................
3 ............t.....................................
4 ...........rt.................t...................
5 .............................tt...................
6 ..................................................
7 ..................................................
8 ..................................................
9 ........r.....r..rr.......h............r..........

Turn = 60.
  01234567890123456789012345678901234567890123456789
0 ..........r..................r....................
1 ............................r.....................
2 r.................................................
3 .....................r.....r......................
4 ...................r..............................
5 ..................................................
6 ......r...........................................
7 ..................................................
8 ...........t....................t.................
9 ............................f.....................
0 ..................................................
1 .....................................f............
2 .........t...................r....................
3 .........t........................................
4 ....r.f................................t..........
5 ..................................................
6 ..r......................................r.r......
7 .....f......................................r.....
8 .....h......r.....................................
9 ............f.....................................
0 r.................................................
1 r......t............f.............................
2 .................................................h
3 r..r..............................................
4 ..................................................
5 r.................................................
6 ..................................................
7 ...................................r..............
8 ...t..............................................
9 ..................................................
0 ..................................................
1 ..................................................
2 ..................................................
3 ..................................................
4 ..................................................
5 ..................................................
6 ..................................................
7 ..................................................
8 ..................................................
9 .t................................................
0 .................r................................
1 ..................................................
2 ..................................................
3 ............t.....................................
4 ......................r.......t...................
5 .............................tt...................
6 ..................................................
7 ................r.................................
8 ..................................................
9 ..................r.....rr.r.r....................

Turn = 70.
  01234567890123456789012345678901234567890123456789
0 r..................r..............................
1 ..................r...............................
2 ..................................................
3 ...........r.....r................................
4 ....r....r........................................
5 ..................................................
6 r.r.............r........................r........
7 ..................................................
8 ...........t....................t.................
9 ............................f.....................
0 r.................................................
1 r....................................f............
2 .........t........................................
3 r........t........................................
4 ......f................................t..........
5 r.................................................
6 .....r............................................
7 .......r..........................................
8 ..................................................
9 ............f.....................................
0 ......r...........................................
1 .......t............f.............................
2 .............................r...................h
3 ..................................................
4 ..................................................
5 ..................................................
6 ...........................................r......
7 ............................................r.....
8 ...t..............................................
9 r.................................................
0 .................r................................
1 ..................................................
2 ..................................................
3 ..................................................
4 ..................................................
5 ..................................................
6 ..................................................
7 ...................................r..............
8 ..................................................
9 .t................................................
0 ........................r.........................
1 ............................r.....................
2 ..................................................
3 ............t...............r.....................
4 .............................tt...................
5 .............................tt...................
6 ..................................................
7 ..................................................
8 ..................................................
9 .......................r....r...r.................

Turn = 80.
  01234567890123456789012345678901234567890123456789
0 .....r...rr.................................r.....
1 ........r.........................................
2 ..r...............................................
3 .r.....r..........................................
4 r.................................................
5 ..................................................
6 ..........................r.......................
7 r.................................................
8 ...........t....................t.................
9 ....r...r...................f.....................
0 ....r...r.........................................
1 .....................................f............
2 .........t........................................
3 .........t........................................
4 ......f................................t..........
5 ..................................................
6 ..................................................
7 r................r................................
8 ..................................................
9 ............f.....................................
0 .................r................................
1 .......t............f.............................
2 .................................................h
3 ..................................................
4 ..................................................
5 ..................................................
6 ..................................................
7 ..................................................
8 ...t..............................................
9 ..................................................
0 ......r.................r.........................
1 ............................r.....................
2 .............................r....................
3 ............................r.....................
4 ..................................................
5 ..................................................
6 ...........................................r......
7 ............................................r.....
8 ..................................................
9 rt................................................
0 ..................................................
1 ..................................................
2 ..................................................
3 ............t.....................................
4 .............................tt...................
5 .............................tt...................
6 ..................................................
7 ...................................r..............
8 ..................................................
9 .................................r....r...r.......

Turn = 90.
  01234567890123456789012345678901234567890123456789
0 ....r..........r...r..............................
1 r.................................................
2 r................................................r
3 ..................................................
4 .......r..........................................
5 .......r..........................................
6 ....................................r.............
7 ..................................................
8 ...........t....................t.................
9 r........r....r...r.........f.....................
0 ..............r..rr...............................
1 .....................................f............
2 .........t........................................
3 .........t........................................
4 ......f................................t..........
5 ..................................................
6 ..................................................
7 ...........................r......................
8 ..................................................
9 ............f.....................................
0 ........................r.........................
1 .......t............f.......r.....................
2 .................................................h
3 ............................r.....................
4 ..................................................
5 ..................................................
6 ..................................................
7 r.................................................
8 ...t..............................................
9 ..................................................
0 ..................................................
1 ..................................................
2 ..................................................
3 ..................................................
4 ..................................................
5 ..................................................
6 ..................................................
7 ..................................................
8 ..................................................
9 .t................................................
0 ......r...........................................
1 ..................................r...............
2 .............................r....................
3 ............t.....................................
4 .............................tt...................
5 .............................tt...................
6 ...........................................r......
7 ............................................r....r
8 ..................................................
9 r.........................................r.....r.

Turn = 100.
  01234567890123456789012345678901234567890123456789
0 ..............r..r.......r...r....................
1 ..........r.......................................
2 ..........r.......................................
3 ..................................................
4 .................r................................
5 .................r................................
6 ..............................................r...
7 ..................................................
8 ...........t....................t.................
9 ........................r..rr.....................
0 ........................r...r.....................
1 .........t..............r...r........f............
2 .........t.......................................r
3 .........t..................r.....................
4 ......f................................t..........
5 ..................................................
6 ..................................................
7 .....................................r............
8 ..................................................
9 r...........f.....................................
0 ..................................................
1 .......t............f.............................
2 .................................................h
3 ..................................................
4 ..................................................
5 ..................................................
6 ..................................................
7 ..................................................
8 ...t..............................................
9 ..................................................
0 ..................................................
1 ..................................r...............
2 ..................................................
3 ..................................................
4 ..................................................
5 ..................................................
6 ..................................................
7 r................................................r
8 ..................................................
9 .t................................................
0 ..................................................
1 .................................................r
2 ..................................................
3 ............t................t.............rr.....
4 .............................tt...................
5 .............................tt...................
6 ..................................................
7 ..................................................
8 ....................................r.............
9 ......r..r........................................
