*** Darwin 4x4 ***
Turn = 0.
  0123
0 hh.f
1 .h.t
2 .fhr
3 .r.t

Turn = 1.
  0123
0 hh.f
1 .h.t
2 .f.t
3 .rht

Turn = 2.
  0123
0 hh.t
1 .h.t
2 .f.t
3 .rrt

Turn = 3.
  0123
0 hh.t
1 .h.t
2 .f.t
3 .rtt

Turn = 4.
  0123
0 hh.t
1 .h.t
2 .f.t
3 .rtt

Turn = 5.
  0123
0 hh.t
1 .h.t
2 .f.t
3 r.tt

Turn = 6.
  0123
0 hh.t
1 .h.t
2 .f.t
3 r.tt

*** Darwin 4x4 ***
Turn = 0.
  0123
0 hh.f
1 .h.t
2 .fhr
3 .r.t

Turn = 2.
  0123
0 hhhr
1 .h.t
2 rr.t
3 ...t

Turn = 4.
  0123
0 hrhr
1 .r.t
2 .r.t
3 r..t

*** Darwin 2x2 ***
Turn = 0.
  01
0 fh
1 .t

Turn = 1.
  01
0 fh
1 .t

Turn = 2.
  01
0 fh
1 .t

Turn = 3.
  01
0 ft
1 .t

Turn = 4.
  01
0 ft
1 .t

Turn = 5.
  01
0 tt
1 .t

Turn = 6.
  01
0 tt
1 .t

Turn = 7.
  01
0 tt
1 .t

*** Darwin 3x3 ***
Turn = 0.
  012
0 fh.
1 .t.
2 ...

Turn = 3.
  012
0 ft.
1 .t.
2 ...

Turn = 6.
  012
0 tt.
1 .t.
2 ...

*** Darwin 2x2 ***
Turn = 0.
  01
0 fh
1 .t

Turn = 3.
  01
0 ft
1 .t

Turn = 6.
  01
0 tt
1 .t

*** Darwin 2x3 ***
Turn = 0.
  012
0 fh.
1 .t.

Turn = 3.
  012
0 ft.
1 .t.

Turn = 6.
  012
0 tt.
1 .t.

*** Darwin 5x5 ***
Turn = 0.
  01234
0 fh...
1 .t...
2 .....
3 .....
4 .....

Turn = 3.
  01234
0 ft...
1 .t...
2 .....
3 .....
4 .....

Turn = 6.
  01234
0 tt...
1 .t...
2 .....
3 .....
4 .....

*** Darwin 4x4 ***
Turn = 0.
  0123
0 r..r
1 h..h
2 ....
3 r..r

Turn = 1.
  0123
0 .r.r
1 .hh.
2 ....
3 .r.r

Turn = 2.
  0123
0 ..r.
1 .hhr
2 ...r
3 ..r.

Turn = 3.
  0123
0 ...r
1 .hhr
2 ...r
3 ...r

Turn = 4.
  0123
0 ...r
1 .hrr
2 ...r
3 ...r

*** Darwin 4x5 ***
Turn = 0.
  01234
0 r..r.
1 h..h.
2 .....
3 r..r.

Turn = 1.
  01234
0 .r..r
1 .hh..
2 .....
3 .r..r

Turn = 2.
  01234
0 ..r.r
1 .hh..
2 .....
3 ..r.r

Turn = 3.
  01234
0 ...r.
1 .hh.r
2 ....r
3 ...r.

Turn = 4.
  01234
0 ....r
1 .hh.r
2 ....r
3 ....r

*** Darwin 5x4 ***
Turn = 0.
  0123
0 r..r
1 h..h
2 ....
3 r..r
4 ....

Turn = 1.
  0123
0 .r.r
1 .hh.
2 ....
3 .r.r
4 ....

Turn = 2.
  0123
0 ..r.
1 .hhr
2 ...r
3 ..r.
4 ....

Turn = 3.
  0123
0 ...r
1 .hhr
2 ...r
3 ...r
4 ....

Turn = 4.
  0123
0 ...r
1 .hrr
2 ...r
3 ...r
4 ....
